<svg xmlns="http://www.w3.org/2000/svg" xmlns:xlink="http://www.w3.org/1999/xlink" width="187" height="26" viewBox="0 0 187 26">
    <defs>
        <path id="prefix__a" d="M0.073 0.044H186.184V25.314H0.073z"/>
    </defs>
    <g fill="none" fill-rule="evenodd">
        <path d="M0 0H186V25H0z"/>
        <mask id="prefix__b" fill="#fff">
            <use xlink:href="#prefix__a"/>
        </mask>
        <g mask="url(#prefix__b)">
            <g fill="#FFF">
                <g fill-rule="nonzero">
                    <path d="M10.523 25.413l-4.175-7.65H4.765v7.65H.181V6.137h7.368c.928 0 1.828.082 2.729.272.873.19 1.664.517 2.374.98.682.463 1.255 1.062 1.664 1.797.41.735.628 1.661.628 2.777 0 1.307-.355 2.396-1.064 3.295-.71.898-1.692 1.524-2.948 1.905l5.049 8.25h-5.458zm-.19-13.368c0-.463-.083-.817-.274-1.116-.19-.273-.436-.49-.737-.654-.3-.136-.654-.245-1.01-.3-.381-.054-.736-.08-1.09-.08H4.737v4.491h2.21c.382 0 .764-.027 1.174-.108.41-.055.764-.164 1.091-.327.328-.164.6-.409.819-.708.191-.3.3-.708.3-1.198zM17.345 25.413v-4.03l9.196-11.298h-8.978V6.137h14.818v3.73l-9.415 11.517h9.606v4.029H17.345zm9.66-20.8h-4.011L19.61.691h3.547l1.856 2.205L26.869.692h3.493l-3.357 3.92zM35.601 25.413V6.137h4.694v19.276H35.6zm3.384-20.8H35.6L38.439.691h4.53l-3.984 3.92z" transform="translate(-.016 -.607) translate(61.647 .003)"/>
                    <path d="M20.74 23.512L20.849 9.871 20.767 9.871 15.746 23.512 12.472 23.512 7.587 9.871 7.505 9.871 7.614 23.512 3.221 23.512 3.221 4.236 9.852 4.236 14.245 16.596 14.355 16.596 18.557 4.236 25.297 4.236 25.297 23.512z" transform="translate(-.016 -.607) translate(61.647 .003) translate(41.058 1.901)"/>
                    <path d="M6.944 23.512L6.944 4.236 19.933 4.236 19.933 8.183 11.446 8.183 11.446 11.805 19.469 11.805 19.469 15.534 11.446 15.534 11.446 19.537 20.424 19.537 20.424 23.512z" transform="translate(-.016 -.607) translate(61.647 .003) translate(63.395 1.901)"/>
                    <path d="M91.76 23.017c0 .762-.272 1.389-.79 1.906-.547.517-1.201.762-1.938.762-.382 0-.737-.054-1.064-.19-.355-.164-.655-.327-.901-.572-.246-.245-.464-.517-.6-.844-.137-.3-.219-.654-.219-1.035 0-.354.082-.708.219-1.034.136-.327.354-.626.6-.872.246-.245.546-.435.9-.571.328-.136.683-.218 1.065-.218.737 0 1.391.245 1.937.762.519.518.792 1.144.792 1.906zM105.295 11.147c-.409-.518-.927-.926-1.555-1.226-.655-.3-1.283-.435-1.883-.435-.3 0-.627.027-.928.081-.327.055-.627.164-.873.3-.245.163-.464.354-.628.599-.19.245-.272.572-.272.953 0 .326.081.599.218.817.136.217.327.408.6.571.246.164.573.3.928.436.355.136.764.3 1.228.436.655.217 1.337.462 2.047.707.71.273 1.364.627 1.937 1.062.573.436 1.064.98 1.446 1.607.382.653.573 1.47.573 2.423 0 1.116-.19 2.069-.6 2.858-.41.817-.982 1.498-1.664 2.015-.683.517-1.474.926-2.375 1.17-.9.246-1.8.382-2.756.382-1.391 0-2.729-.245-4.011-.735-1.283-.463-2.374-1.144-3.22-2.042l3.056-3.104c.464.572 1.092 1.062 1.883 1.443.764.409 1.528.6 2.292.6.355 0 .683-.028 1.01-.11.327-.081.6-.19.873-.354.246-.163.437-.38.573-.653.137-.272.219-.6.219-.98 0-.354-.082-.68-.273-.926-.191-.245-.437-.49-.764-.708-.355-.19-.764-.381-1.256-.572-.518-.163-1.091-.353-1.719-.544-.627-.19-1.228-.436-1.8-.708-.601-.272-1.12-.626-1.584-1.062-.463-.408-.845-.925-1.118-1.552-.3-.599-.437-1.334-.437-2.205 0-1.062.218-1.987.655-2.75.437-.762 1.01-1.388 1.72-1.878.709-.49 1.5-.844 2.4-1.09.901-.217 1.801-.326 2.702-.326 1.092 0 2.21.19 3.356.599 1.12.408 2.129.98 2.975 1.77l-2.975 3.13z" transform="translate(-.016 -.607) translate(61.647 .003)"/>
                    <path d="M6.944 23.512L6.944 4.236 19.933 4.236 19.933 8.183 11.446 8.183 11.446 11.805 19.469 11.805 19.469 15.534 11.446 15.534 11.446 19.537 20.424 19.537 20.424 23.512z" transform="translate(-.016 -.607) translate(61.647 .003) translate(104.273 1.901)"/>
                </g>
                <g>
                    <path fill-rule="nonzero" d="M14.797 6.51c0 1.116-.219 2.069-.628 2.83-.41.79-.982 1.417-1.692 1.88-.71.462-1.528.816-2.456 1.034-.928.218-1.883.327-2.892.327h-2.32v7.27H.143V.573h7.095c1.064 0 2.046.109 2.974.3.9.217 1.72.544 2.402 1.007.682.463 1.2 1.089 1.61 1.824.382.762.573 1.688.573 2.804zm-4.667.027c0-.463-.081-.817-.272-1.117-.191-.3-.437-.517-.737-.68-.3-.164-.655-.273-1.037-.327-.41-.054-.819-.082-1.228-.082H4.809v4.547h1.965c.437 0 .846-.027 1.255-.109.41-.082.764-.19 1.092-.381.3-.19.546-.408.737-.735.19-.3.272-.654.272-1.116z" transform="translate(-.016 -.607) translate(.075 5.598)"/>
                    <path d="M58.795 11.623c-.275 2.068-1.157 3.869-2.654 5.288-1.28 1.213-2.912 2.057-4.794 2.498-.753.177-1.582.331-2.39.354-2.042.054-8.105 0-8.105 0V7.233l4.08 1.026v7.5s.958.001 1.03.005c.956.034 2.974.027 4.679-.515.838-.267 1.481-.738 2.073-1.366.41-.434.79-1.022 1.006-1.665.458-1.373.422-3.004.13-3.96-.298-.974-.775-1.73-1.38-2.282-.704-.64-1.56-1.011-2.208-1.21-.71-.216-1.141-.268-1.724-.305-.809-.05-3.129 0-3.129 0S33.982 7.308 30.134 8.26c-2.601.643-7.887 1.995-7.887 1.995s-.054-.704.177-.956c.402-.439 2.602-1.502 3.452-1.942 3.584-1.85 7.84-3.974 12.876-5.298C41.168 1.422 47.138.574 48.957.574c2.825 0 5.544.987 7.4 2.772 1.335 1.284 2.047 2.875 2.35 4.603l-.745.07c-.452.042-.784.443-.742.893l.19 2.017c.043.45.444.781.895.74l.49-.046z" transform="translate(-.016 -.607) translate(.075 5.598)"/>
                    <path d="M57.599 9.139c-.038-.402.259-.76.662-.797l.708-.067c.403-.038.76.259.799.66l.147 1.572c.038.402-.259.76-.661.797l-.71.066c-.402.038-.76-.258-.797-.66l-.148-1.571z" transform="translate(-.016 -.607) translate(.075 5.598)"/>
                </g>
                <path d="M17.727 14.448c-.131-.004-.35-.002-.348-.015.282-2.362 1.294-4.55 2.935-6.104 1.898-1.798 4.62-2.674 7.488-2.674 3.962 0 9.117.815 13.602 2.217 3.857 1.205 8.323 3.345 11.57 4.745.596.257.715.78 1.094 1.868-.004.051-.463-.132-.809-.218-3.435-.853-8.863-2.369-13.826-3.204-5.828-.98-11.018-1.216-11.631-1.216-1.623 0-3.198.739-4.21 1.937-.889 1.053-1.316 2.466-1.316 3.998 0 1.744.651 3.445 1.766 4.532.981.956 2.333 1.424 3.76 1.403 1.84-.024 4.727-1.603 5.065-4.091.116-.853.534-2.247-.087-4.388-.328-1.13-.741-2.003-.824-2.175-.001 0 5.37.653 5.555.53-.001-.01-.002-.014 0-.016.007.006.007.012 0 .016.034.236.836 2.852.69 4.506-.196 2.227-.49 3.405-1.113 4.702-.575 1.2-1.569 2.28-2.62 3.079-1.789 1.357-4.216 2.085-6.666 2.085-3.096 0-5.973-1.106-7.9-3.163-.964-1.031-1.683-2.316-2.121-3.716l.808.02c.48.012.88-.368.892-.848l.072-2.895c.012-.48-.368-.88-.849-.89l-.977-.025z" transform="translate(-.016 -.607)"/>
                <path d="M19.119 15.69c.012-.479-.369-.879-.85-.891l-.977-.024c-.48-.012-.881.368-.893.848l-.055 2.215c-.012.48.369.88.85.892l.977.024c.48.012.88-.368.893-.848l.055-2.215z" transform="translate(-.016 -.607)"/>
            </g>
        </g>
    </g>
</svg>
